%YAML 1.1
%TAG !u! tag:unity3d.com,2011:
--- !u!114 &11400000
MonoBehaviour:
  m_ObjectHideFlags: 0
  m_CorrespondingSourceObject: {fileID: 0}
  m_PrefabInstance: {fileID: 0}
  m_PrefabAsset: {fileID: 0}
  m_GameObject: {fileID: 0}
  m_Enabled: 1
  m_EditorHideFlags: 0
  m_Script: {fileID: 11500000, guid: 06eb0fb80d97f7144939460f940ac761, type: 3}
  m_Name: Squirtle
  m_EditorClassIdentifier: 
  ID: 7
  pokemonName: Squirtle
  description: "Squirtle Description\t"
  frontSprite: {fileID: 21300000, guid: bcecfe2a9b9bd8d4687ef69e5f4f099a, type: 3}
  backSprite: {fileID: 21300000, guid: 661f4519ea6eb334ca04229b6eab38a4, type: 3}
  type1: 3
  type2: 0
  maxHP: 44
  attack: 48
  defense: 65
  spAttack: 50
  spDefense: 64
  speed: 43
  expBase: 64
  growthRate: 3
  catchRate: 45
  learnableMoves:
  - _move: {fileID: 11400000, guid: 4b40baedca4daf642a19980a69b15861, type: 2}
    _level: 1
  - _move: {fileID: 11400000, guid: aa1c3b7e0ea04724da4beaac8a20001d, type: 2}
    _level: 5
  - _move: {fileID: 11400000, guid: 6854a7ec9893ef646a8871c3987ec490, type: 2}
    _level: 8
