%YAML 1.1
%TAG !u! tag:unity3d.com,2011:
--- !u!114 &11400000
MonoBehaviour:
  m_ObjectHideFlags: 0
  m_CorrespondingSourceObject: {fileID: 0}
  m_PrefabInstance: {fileID: 0}
  m_PrefabAsset: {fileID: 0}
  m_GameObject: {fileID: 0}
  m_Enabled: 1
  m_EditorHideFlags: 0
  m_Script: {fileID: 11500000, guid: a711bfa3947839d43a995449ea6798c3, type: 3}
  m_Name: Burbujas
  m_EditorClassIdentifier: 
  movementName: Burbujas
  description: Lanza burbujas
  type: 3
  power: 40
  accuracy: 100
  pp: 30
